…
```r
 filter(mpg, cyl == 8)
```

```
## # A tibble: 70 x 11
##    manufacturer model     displ  year   cyl trans  drv     cty   hwy fl    class
##    <chr>        <chr>     <dbl> <int> <int> <chr>  <chr> <int> <int> <chr> <chr>
##  1 audi         a6 quatt…   4.2  2008     8 auto(… 4        16    23 p     mids…
##  2 chevrolet    c1500 su…   5.3  2008     8 auto(… r        14    20 r     suv  
##  3 chevrolet    c1500 su…   5.3  2008     8 auto(… r        11    15 e     suv  
##  4 chevrolet    c1500 su…   5.3  2008     8 auto(… r        14    20 r     suv  
##  5 chevrolet    c1500 su…   5.7  1999     8 auto(… r        13    17 r     suv  
##  6 chevrolet    c1500 su…   6    2008     8 auto(… r        12    17 r     suv  
##  7 chevrolet    corvette    5.7  1999     8 manua… r        16    26 p     2sea…
##  8 chevrolet    corvette    5.7  1999     8 auto(… r        15    23 p     2sea…
##  9 chevrolet    corvette    6.2  2008     8 manua… r        16    26 p     2sea…
## 10 chevrolet    corvette    6.2  2008     8 auto(… r        15    25 p     2sea…
## # … with 60 more rows
```

```r
 filter(diamonds, carat > 3)
```

```
## # A tibble: 32 x 10
##    carat cut     color clarity depth table price     x     y     z
##    <dbl> <ord>   <ord> <ord>   <dbl> <dbl> <int> <dbl> <dbl> <dbl>
##  1  3.01 Premium I     I1       62.7    58  8040  9.1   8.97  5.67
##  2  3.11 Fair    J     I1       65.9    57  9823  9.15  9.02  5.98
##  3  3.01 Premium F     I1       62.2    56  9925  9.24  9.13  5.73
##  4  3.05 Premium E     I1       60.9    58 10453  9.26  9.25  5.66
##  5  3.02 Fair    I     I1       65.2    56 10577  9.11  9.02  5.91
##  6  3.01 Fair    H     I1       56.1    62 10761  9.54  9.38  5.31
##  7  3.65 Fair    H     I1       67.1    53 11668  9.53  9.48  6.38
##  8  3.24 Premium H     I1       62.1    58 12300  9.44  9.4   5.85
##  9  3.22 Ideal   I     I1       62.6    55 12545  9.49  9.42  5.92
## 10  3.5  Ideal   H     I1       62.8    57 12587  9.65  9.59  6.03
## # … with 22 more rows
```
…
```r
seq(from = 2, to = 5)
```

```
## [1] 2 3 4 5
```

```r
flights
```

```
## # A tibble: 336,776 x 19
##     year month   day dep_time sched_dep_time dep_delay arr_time sched_arr_time
##    <int> <int> <int>    <int>          <int>     <dbl>    <int>          <int>
##  1  2013     1     1      517            515         2      830            819
##  2  2013     1     1      533            529         4      850            830
##  3  2013     1     1      542            540         2      923            850
##  4  2013     1     1      544            545        -1     1004           1022
##  5  2013     1     1      554            600        -6      812            837
##  6  2013     1     1      554            558        -4      740            728
##  7  2013     1     1      555            600        -5      913            854
##  8  2013     1     1      557            600        -3      709            723
##  9  2013     1     1      557            600        -3      838            846
## 10  2013     1     1      558            600        -2      753            745
## # … with 336,766 more rows, and 11 more variables: arr_delay <dbl>,
## #   carrier <chr>, flight <int>, tailnum <chr>, origin <chr>, dest <chr>,
## #   air_time <dbl>, distance <dbl>, hour <dbl>, minute <dbl>, time_hour <dttm>
```
…
