…
```r
datards <- read_rds(
  url("https://github.com/byuistats/data/blob/master/Dart_Expert_Dow_6month_anova/Dart_Expert_Dow_6month_anova.RDS?raw=true"
))
```


```r
download("https://raw.githubusercontent.com/byuistats/data/master/Dart_Expert_Dow_6month_anova/Dart_Expert_Dow_6month_anova.csv",mode = "wb", destfile = "task9.csv")
read_csv("task9.csv") #%>% View() 
```

```
## # A tibble: 300 x 3
##    contest_period             variable value
##    <chr>                      <chr>    <dbl>
##  1 January-June1990           PROS      12.7
##  2 February-July1990          PROS      26.4
##  3 March-August1990           PROS       2.5
##  4 April-September1990        PROS     -20  
##  5 May-October1990            PROS     -37.8
##  6 June-November1990          PROS     -33.3
##  7 July-December1990          PROS     -10.2
##  8 August1990-January1991     PROS     -20.3
##  9 September1990-February1991 PROS      38.9
## 10 October1990-March1991      PROS      20.2
## # … with 290 more rows
```
…
